[
{
  "model": "hose.hosesize",
  "pk": 1,
  "fields": {
    "dn": 6,
    "size": 4,
    "inch": "1/4"
  }
},
{
  "model": "hose.hosesize",
  "pk": 2,
  "fields": {
    "dn": 8,
    "size": 5,
    "inch": "5/16"
  }
},
{
  "model": "hose.hosesize",
  "pk": 3,
  "fields": {
    "dn": 10,
    "size": 6,
    "inch": "3/8"
  }
},
{
  "model": "hose.hosesize",
  "pk": 4,
  "fields": {
    "dn": 12,
    "size": 8,
    "inch": "1/2"
  }
},
{
  "model": "hose.hosesize",
  "pk": 5,
  "fields": {
    "dn": 16,
    "size": 10,
    "inch": "5/8"
  }
},
{
  "model": "hose.hosesize",
  "pk": 6,
  "fields": {
    "dn": 20,
    "size": 12,
    "inch": "3/4"
  }
},
{
  "model": "hose.hosesize",
  "pk": 7,
  "fields": {
    "dn": 25,
    "size": 16,
    "inch": "1\""
  }
},
{
  "model": "hose.hosesize",
  "pk": 8,
  "fields": {
    "dn": 32,
    "size": 20,
    "inch": "1\"1/4"
  }
},
{
  "model": "hose.hosesize",
  "pk": 9,
  "fields": {
    "dn": 40,
    "size": 24,
    "inch": "1\"1/2"
  }
},
{
  "model": "hose.hosesize",
  "pk": 10,
  "fields": {
    "dn": 50,
    "size": 32,
    "inch": "2\""
  }
},
{
  "model": "hose.hosesize",
  "pk": 11,
  "fields": {
    "dn": 5,
    "size": 3,
    "inch": "3/16"
  }
}
]
