[
{
  "model": "logistic.location",
  "pk": 1,
  "fields": {
    "name": "Витебск склад",
    "address": "",
    "city": 1
  }
},
{
  "model": "logistic.location",
  "pk": 2,
  "fields": {
    "name": "Минск склад",
    "address": "",
    "city": 1
  }
}
]
